{
    "fL": [
        0.5793597944699108,
        0.009743448275898736
    ],
    "n_Bd2DstDs": [
        20772.1885934369,
        156.44556058833405
    ],
    "n_Bd2DstDsst_Dsst2Dsgamma": [
        37562.06495233892,
        239.60908881965588
    ]
}